Postulación Spike
…
precip <- read.csv("https://raw.githubusercontent.com/SpikeLab-CL/desafio_spike_precios/main/precipitaciones.csv") %>% as_tibble()
banco <- read.csv("https://raw.githubusercontent.com/SpikeLab-CL/desafio_spike_precios/main/banco_central.csv") %>% 
  as_tibble() 
leche <- read.csv("https://raw.githubusercontent.com/SpikeLab-CL/desafio_spike_precios/main/precio_leche.csv") %>% as_tibble()

Análisis de datos

Precipitación

Primero voy a visualizar las bases de datos para ver qué información tienen y en qué formato. Empezaré por los datos de precipitación

precip

## # A tibble: 496 x 9
##    date  Coquimbo Valparaiso Metropolitana_d… Libertador_Gral…   Maule  Biobio
##    <fct>    <dbl>      <dbl>            <dbl>            <dbl>   <dbl>   <dbl>
##  1 1989…  0.719     0.117             0.0283             0     7.25e-1 9.17e+0
##  2 1998…  0.0652    0                 0.0115             0     8.97e-3 2.09e+0
##  3 2001…  2.03      0.0480            0.00263            0     3.22e-2 1.08e+1
##  4 2008…  0.623     0                 0.0159             0     1.73e+0 2.51e+1
##  5 2009…  0.00807   0                 0.00940            0     1.21e+1 5.62e+1
##  6 2015…  0.239     0.0256            0.365              0     1.19e-2 1.17e-3
##  7 2016…  1.41      0.174             0.0569             0     4.65e-1 1.52e+1
##  8 2020…  0.00345   0.000666          0                  0     1.16e-1 1.25e+1
##  9 1988…  3.61      7.69              5.76               1.35  5.67e+0 2.99e+1
## 10 2015…  0.273     0.283             0.689              0.410 5.13e-1 2.01e+1
## # … with 486 more rows, and 2 more variables: La_Araucania <dbl>,
## #   Los_Rios <dbl>
…
Se observa que la mayoría de las distribuciones son log normal, la cual es común de encontrar al analizar variables naturales o ambientales, y que existen mayores precipitaciones en las regiones del sur del país en comparación a las de la zona norte.

Banco central

Replicaré los pasos anteriores con los datos del banco central, comenzando entonces por visualizar los datos.

banco

## # A tibble: 614 x 85
##    Periodo Imacec_empalmado Imacec_producci… Imacec_minero Imacec_industria
##    <fct>   <fct>            <fct>            <fct>         <fct>           
##  1 2013-0… 102.796.218      10.546.824       978.554.365   102.297.537     
##  2 2013-0… 101.664.842      999.272.757      927.333.293   104.485.589     
##  3 2013-0… 101.642.954      993.959.922      96.133.164    105.445.361     
##  4 2013-0… 998.310.201      968.367.884      102.400.933   999.212.106     
##  5 2013-0… 964.696.194      961.051.418      980.029.022   100.882.112     
##  6 2013-0… 993.089.872      959.559.679      102.692.682   99.581.119      
##  7 2013-0… 950.851.786      913.878.449      103.290.693   903.876.015     
##  8 2013-1… 102.727.926      101.742.025      106.829.225   102.778.378     
##  9 2013-1… 105.750.158      103.950.101      108.805.134   100.421.866     
## 10 2013-1… 108.648.049      111.725.441      110.363.063   102.233.834     
## # … with 604 more rows, and 80 more variables: Imacec_resto_de_bienes <fct>,
## #   Imacec_comercio <fct>, Imacec_servicios <fct>,
## #   Imacec_a_costo_de_factores <fct>, Imacec_no_minero <fct>,
## #   PIB_Agropecuario_silvicola <fct>, PIB_Pesca <fct>, PIB_Mineria <fct>,
## #   PIB_Mineria_del_cobre <fct>, PIB_Otras_actividades_mineras <fct>,
## #   PIB_Industria_Manufacturera <fct>, PIB_Alimentos <fct>,
## #   PIB_Bebidas_y_tabaco <fct>, PIB_Textil <fct>, PIB_Maderas_y_muebles <fct>,
## #   PIB_Celulosa <fct>, PIB_Refinacion_de_petroleo <fct>, PIB_Quimica <fct>,
## #   PIB_Minerales_no_metalicos_y_metalica_basica <fct>,
…
Al realizar la conversión a dato numérico aparecen varias advertencias dado que se generaron muchos valores NA, por lo que contaré la cantidad de datos no nulos que se dispone por variable. Guardaré este objeto para poder utilizarlo más adelante para filtrar las variables que consideraré en la base de datos final para realizar el modelo.

contarbanco <- banco %>% 
    gather(key = variable, value = value, -date) %>% 
    group_by(variable) %>% 
    filter(!is.na(value)) %>% 
    count() %>% 
    arrange(desc(n))

contarbanco

## # A tibble: 83 x 2
## # Groups:   variable [83]
##    variable                                                  n
##    <chr>                                                 <int>
##  1 Precio_de_la_onza_troy_de_oro_dolaresoz                 611
##  2 Precio_de_la_onza_troy_de_plata_dolaresoz               611
##  3 Precio_del_cobre_refinado_BML_dolareslibra              611
##  4 Precio_de_la_gasolina_en_EEUU_dolaresm3                 592
##  5 Tipo_de_cambio_del_dolar_observado_diario               460
##  6 Precio_del_petroleo_WTI_dolaresbarril                   451
##  7 Indice_de_tipo_de_cambio_real___TCR_promedio_1986_100   418
##  8 Indice_de_produccion_industrial__mineria                370
##  9 Indice_de_produccion_industrial__manufacturera          358
## 10 Tipo_de_cambio_nominal_multilateral___TCM               311
## # … with 73 more rows
…
Se observa que estas variables presentan una distribución bimodal, donde en la mayoría se observa una concentración importante de observaciones con un valor cercano a 0.

Precio de la leche

Una vez más, replicaré los pasos anteriores con los datos del precio de la leche, comenzando por visualizar los datos.

leche

## # A tibble: 506 x 3
##     Anio Mes   Precio_leche
##    <int> <fct>        <dbl>
##  1  1979 Ene           3.85
##  2  1979 Feb           4.58
##  3  1979 Mar           5.18
##  4  1979 Abr           6.06
##  5  1979 May           7.25
##  6  1979 Jun           7.71
##  7  1979 Jul           8.1 
##  8  1979 Ago           7.65
##  9  1979 Sep           6.96
## 10  1979 Oct           5.79
## # … with 496 more rows

En este caso es necesario juntar la columna Anio, mes y el día 01 para generar una columna en formato fecha, la cual se llamará date para que coincida con la de las bases de datos anteriores. Para ello sera necesario llevar la columna Mes a un número entre 1 y 12, o a los nombres de los meses en inglés para que puedan ser reconocidos.

meses <- data.frame(Mes = c("Ene", "Feb", "Mar", "Abr", "May", "Jun",
                            "Jul", "Ago", "Sep", "Oct", "Nov", "Dic"),
                    N = 1:12)

leche <- leche %>% 
  left_join(meses, by = "Mes") %>% 
  mutate(date = paste(Anio, N, 01, sep = "-"),
         date = ymd(date)) %>% 
  select(date, Precio_leche)
leche

## # A tibble: 506 x 2
##    date       Precio_leche
##    <date>            <dbl>
##  1 1979-01-01         3.85
##  2 1979-02-01         4.58
##  3 1979-03-01         5.18
##  4 1979-04-01         6.06
##  5 1979-05-01         7.25
##  6 1979-06-01         7.71
##  7 1979-07-01         8.1 
##  8 1979-08-01         7.65
##  9 1979-09-01         6.96
## 10 1979-10-01         5.79
## # … with 496 more rows
…
